---
http_interactions:
- request:
    method: get
    uri: https://api.pexels.com/v1/search?per_page=1&query=Apples
    body:
      encoding: US-ASCII
      string: ''
    headers:
      Authorization:
      - 563492ad6f917000010000013766ed931f7b4fd7bc7697331b581cb1
      User-Agent:
      - Faraday v2.5.2
      Accept-Encoding:
      - gzip;q=1.0,deflate;q=0.6,identity;q=0.3
      Accept:
      - "*/*"
  response:
    status:
      code: 200
      message: OK
    headers:
      Date:
      - Sun, 04 Sep 2022 17:27:32 GMT
      Content-Type:
      - application/json; charset=utf-8
      Content-Length:
      - '463'
      Connection:
      - keep-alive
      Cf-Ray:
      - 74586fba8c392752-DEN
      Cache-Control:
      - max-age=0, private, must-revalidate
      Set-Cookie:
      - __cf_bm=.yo57DpRvzsvQvnfpptSbC30zCmJIeHk1XfsPkS.YlQ-1662312452-0-AS18ogV5rChlPc4KYi6q3yBByiYOvzh+FjA6xsGN3+5sdy7iWsfCwOsiFwk0iwPK7yEiOBSLA3a/Ke+B/UWbU+c=;
        path=/; expires=Sun, 04-Sep-22 17:57:32 GMT; domain=.pexels.com; HttpOnly;
        Secure; SameSite=None
      - __cf_bm=3qdspCOsWP1V1TLy9ClCLa6fw7jsSEEGkLaQPgPHd94-1662312452-0-AYtfY9oVdCIqBOVs85pmc+7Dq4U60PwrMgCiMA0dPDuV50r+3UJ0u0F+xHsoxbwIkQ4+yL2wnJnn1tL7cOVS3sU=;
        path=/; expires=Sun, 04-Sep-22 17:57:32 GMT; domain=.pexels.com; HttpOnly;
        Secure; SameSite=None
      Vary:
      - Origin, Accept-Encoding
      Cf-Cache-Status:
      - DYNAMIC
      Alt-Svc:
      - h3=":443"; ma=86400, h3-29=":443"; ma=86400
      X-Frame-Options:
      - SAMEORIGIN
      X-Ratelimit-Limit:
      - '20000'
      X-Ratelimit-Remaining:
      - '19959'
      X-Ratelimit-Reset:
      - '1664499674'
      X-Request-Id:
      - 1dd4ff5b-d4a6-421d-8c9c-9863b073a907
      X-Runtime:
      - '0.121236'
      X-Server:
      - anteater
      Server:
      - cloudflare
    body:
      encoding: ASCII-8BIT
      string: '{"page":1,"per_page":1,"photos":[{"id":1453713,"width":2304,"height":3456,"url":"https://www.pexels.com/photo/photography-of-pile-of-apples-1453713/","photographer":"Maria
        Lindsey Content Creator","photographer_url":"https://www.pexels.com/@margemedia","photographer_id":647565,"avg_color":"#B94744","src":{"original":"https://images.pexels.com/photos/1453713/pexels-photo-1453713.jpeg","large2x":"https://images.pexels.com/photos/1453713/pexels-photo-1453713.jpeg?auto=compress\u0026cs=tinysrgb\u0026dpr=2\u0026h=650\u0026w=940","large":"https://images.pexels.com/photos/1453713/pexels-photo-1453713.jpeg?auto=compress\u0026cs=tinysrgb\u0026h=650\u0026w=940","medium":"https://images.pexels.com/photos/1453713/pexels-photo-1453713.jpeg?auto=compress\u0026cs=tinysrgb\u0026h=350","small":"https://images.pexels.com/photos/1453713/pexels-photo-1453713.jpeg?auto=compress\u0026cs=tinysrgb\u0026h=130","portrait":"https://images.pexels.com/photos/1453713/pexels-photo-1453713.jpeg?auto=compress\u0026cs=tinysrgb\u0026fit=crop\u0026h=1200\u0026w=800","landscape":"https://images.pexels.com/photos/1453713/pexels-photo-1453713.jpeg?auto=compress\u0026cs=tinysrgb\u0026fit=crop\u0026h=627\u0026w=1200","tiny":"https://images.pexels.com/photos/1453713/pexels-photo-1453713.jpeg?auto=compress\u0026cs=tinysrgb\u0026dpr=1\u0026fit=crop\u0026h=200\u0026w=280"},"liked":false,"alt":"Photography
        of Pile of Apples"}],"total_results":5812,"next_page":"https://api.pexels.com/v1/search/?page=2\u0026per_page=1\u0026query=Apples"}'
  recorded_at: Sun, 04 Sep 2022 17:27:32 GMT
recorded_with: VCR 6.1.0
